<svg width="185" height="148" viewBox="0 0 185 148" fill="none" xmlns="http://www.w3.org/2000/svg">
<g clip-path="url(#clip0)">
<path d="M185 54.8023H107.238V57.279H185V54.8023Z" fill="#2BBBAD"/>
<path d="M133.366 34.0876H113.666V55.4778H133.366V34.0876Z" fill="#E6E6E6"/>
<path d="M129.426 38.3656H117.606V51.1997H129.426V38.3656Z" fill="#2BBBAD"/>
<path d="M162.812 34.0876H157.835V55.4778H162.812V34.0876Z" fill="#E6E6E6"/>
<path d="M162.812 37.465H157.835V39.9417H162.812V37.465Z" fill="#2BBBAD"/>
<path d="M162.812 48.2726H157.835V50.7494H162.812V48.2726Z" fill="#2BBBAD"/>
<path d="M155.139 34.0876H150.162V55.4778H155.139V34.0876Z" fill="#E6E6E6"/>
<path d="M155.139 37.465H150.162V39.9417H155.139V37.465Z" fill="#2BBBAD"/>
<path d="M155.139 48.2726H150.162V50.7494H155.139V48.2726Z" fill="#2BBBAD"/>
<path d="M167.1 33.9992L162.64 36.3968L171.38 55.5662L175.841 53.1686L167.1 33.9992Z" fill="#E6E6E6"/>
<path d="M168.48 37.0259L164.02 39.4235L165.032 41.6432L169.492 39.2455L168.48 37.0259Z" fill="#2BBBAD"/>
<path d="M172.896 46.7115L168.436 49.1091L169.448 51.3288L173.908 48.9311L172.896 46.7115Z" fill="#2BBBAD"/>
<path d="M121.027 42.6736L123.534 47.387L126.04 52.1004H121.027H116.015L118.521 47.387L121.027 42.6736Z" fill="#E6E6E6"/>
<path d="M125.382 43.5743L127.888 48.2876L130.395 53.001H125.382H120.37L122.876 48.2876L125.382 43.5743Z" fill="#E6E6E6"/>
<path d="M127.145 42.1933C127.947 42.1933 128.596 41.4877 128.596 40.6172C128.596 39.7468 127.947 39.0411 127.145 39.0411C126.343 39.0411 125.693 39.7468 125.693 40.6172C125.693 41.4877 126.343 42.1933 127.145 42.1933Z" fill="#E6E6E6"/>
<path d="M107.238 23.2799L185 23.2799V20.8031L107.238 20.8031V23.2799Z" fill="#2BBBAD"/>
<path d="M158.872 21.4786L178.572 21.4786V0.088459L158.872 0.088459V21.4786Z" fill="#E6E6E6"/>
<path d="M162.812 17.2006H174.632V4.36648L162.812 4.36648V17.2006Z" fill="#2BBBAD"/>
<path d="M129.426 21.4786H134.403V0.088459H129.426V21.4786Z" fill="#E6E6E6"/>
<path d="M129.426 5.9426L134.403 5.9426V3.46584L129.426 3.46584V5.9426Z" fill="#2BBBAD"/>
<path d="M129.426 16.7503H134.403V14.2735H129.426V16.7503Z" fill="#2BBBAD"/>
<path d="M137.098 21.4786H142.075V0.088459H137.098V21.4786Z" fill="#E6E6E6"/>
<path d="M137.098 5.9426L142.075 5.9426V3.46584L137.098 3.46584V5.9426Z" fill="#2BBBAD"/>
<path d="M137.098 16.7503H142.075V14.2735H137.098V16.7503Z" fill="#2BBBAD"/>
<path d="M116.397 19.1694L120.857 21.5671L129.598 2.39763L125.138 3.96298e-07L116.397 19.1694Z" fill="#E6E6E6"/>
<path d="M122.746 5.24638L127.206 7.64401L128.218 5.42439L123.758 3.02676L122.746 5.24638Z" fill="#2BBBAD"/>
<path d="M118.329 14.932L122.789 17.3296L123.801 15.11L119.341 12.7124L118.329 14.932Z" fill="#2BBBAD"/>
<path d="M171.21 8.67438L168.704 13.3878L166.198 18.1011H171.21H176.223L173.716 13.3878L171.21 8.67438Z" fill="#E6E6E6"/>
<path d="M166.855 9.57503L164.349 14.2884L161.843 19.0018H166.855H171.868L169.362 14.2884L166.855 9.57503Z" fill="#E6E6E6"/>
<path d="M165.093 8.1942C165.895 8.1942 166.544 7.48854 166.544 6.61808C166.544 5.74761 165.895 5.04196 165.093 5.04196C164.291 5.04196 163.641 5.74761 163.641 6.61808C163.641 7.48854 164.291 8.1942 165.093 8.1942Z" fill="#E6E6E6"/>
<path d="M107.238 91.2782L185 91.2782V88.8014L107.238 88.8014V91.2782Z" fill="#2BBBAD"/>
<path d="M158.872 89.4769H178.572V68.0867H158.872V89.4769Z" fill="#E6E6E6"/>
<path d="M162.812 85.1989H174.632V72.3648H162.812V85.1989Z" fill="#2BBBAD"/>
<path d="M129.426 89.4769H134.403V68.0867H129.426V89.4769Z" fill="#E6E6E6"/>
<path d="M129.426 73.9409H134.403V71.4641H129.426V73.9409Z" fill="#2BBBAD"/>
<path d="M129.426 84.7485H134.403V82.2718H129.426V84.7485Z" fill="#2BBBAD"/>
<path d="M137.098 89.4769H142.075V68.0867H137.098V89.4769Z" fill="#E6E6E6"/>
<path d="M137.098 73.9409H142.075V71.4641H137.098V73.9409Z" fill="#2BBBAD"/>
<path d="M137.098 84.7485H142.075V82.2718H137.098V84.7485Z" fill="#2BBBAD"/>
<path d="M116.397 87.1677L120.857 89.5653L129.598 70.3959L125.138 67.9983L116.397 87.1677Z" fill="#E6E6E6"/>
<path d="M122.746 73.2446L127.206 75.6423L128.218 73.4226L123.758 71.025L122.746 73.2446Z" fill="#2BBBAD"/>
<path d="M118.329 82.9303L122.789 85.3279L123.801 83.1083L119.341 80.7106L118.329 82.9303Z" fill="#2BBBAD"/>
<path d="M171.21 76.6726L168.704 81.386L166.198 86.0996H171.21H176.223L173.716 81.386L171.21 76.6726Z" fill="#E6E6E6"/>
<path d="M166.855 77.5732L164.349 82.2866L161.843 87.0003H166.855H171.868L169.362 82.2866L166.855 77.5732Z" fill="#E6E6E6"/>
<path d="M165.093 76.1925C165.895 76.1925 166.544 75.4868 166.544 74.6163C166.544 73.7459 165.895 73.0402 165.093 73.0402C164.291 73.0402 163.641 73.7459 163.641 74.6163C163.641 75.4868 164.291 76.1925 165.093 76.1925Z" fill="#2BBBAD"/>
<path d="M91.6041 148C142.196 148 183.208 144.837 183.208 140.936C183.208 137.034 142.196 133.872 91.6041 133.872C41.0125 133.872 0 137.034 0 140.936C0 144.837 41.0125 148 91.6041 148Z" fill="#E6E6E6"/>
<path d="M163.17 144.892C148.233 142.005 131.899 142.485 114.765 144.892C122.575 137.733 129.314 130.575 121.505 123.416C136.738 126.829 138.872 126.483 155.817 123.416C151.887 130.575 159.239 137.733 163.17 144.892Z" fill="#2BBBAD"/>
<path opacity="0.2" d="M163.17 144.892C148.233 142.005 131.899 142.485 114.765 144.892C122.575 137.733 129.314 130.575 121.505 123.416C136.738 126.829 138.872 126.483 155.817 123.416C151.887 130.575 159.239 137.733 163.17 144.892Z" fill="black"/>
<path d="M159.526 141.838C146.838 139.534 132.963 139.917 118.409 141.838C125.042 136.124 130.768 130.41 124.134 124.696C137.074 127.419 138.886 127.144 153.281 124.696C149.942 130.41 156.188 136.124 159.526 141.838Z" fill="#2BBBAD"/>
<path d="M154.694 132.631C158.427 132.631 161.454 129.345 161.454 125.29C161.454 121.236 158.427 117.95 154.694 117.95C150.96 117.95 147.933 121.236 147.933 125.29C147.933 129.345 150.96 132.631 154.694 132.631Z" fill="#2F2E41"/>
<path d="M124.004 116.776L128.688 117.624L131.03 124.971L124.264 129.492L116.457 116.776H123.744H124.004Z" fill="#FFB8B8"/>
<path d="M137.276 128.079C143.312 128.079 148.206 122.765 148.206 116.211C148.206 109.656 143.312 104.343 137.276 104.343C131.24 104.343 126.346 109.656 126.346 116.211C126.346 122.765 131.24 128.079 137.276 128.079Z" fill="#FFB8B8"/>
<path d="M76.9006 72.9778C76.9006 72.9778 50.3562 76.0861 45.6719 75.521C40.9876 74.9558 38.9057 74.3907 38.9057 74.3907C38.9057 74.3907 35.7828 78.9118 37.3443 80.8898C38.2188 82.0295 39.2769 82.987 40.4671 83.7155C40.4671 83.7155 43.3298 82.8678 45.4117 83.7155C47.4936 84.5632 68.573 88.2366 72.2163 84.8457C75.8596 81.4549 76.9006 72.9778 76.9006 72.9778Z" fill="#2F2E41"/>
<path d="M78.7223 135.991C78.7223 135.991 61.2863 130.622 58.1634 106.886V104.626C58.1634 104.626 54.7135 111.197 53.4791 112.538C52.0478 114.092 46.9731 128.079 47.2334 129.492C47.4936 130.905 47.2334 131.47 47.2334 131.47L39.6864 130.622V128.079C39.6864 128.079 43.7201 114.939 43.9804 111.831C44.2406 108.723 53.9996 87.1063 53.9996 87.1063C53.9996 87.1063 57.6429 78.9118 63.8886 87.1063C70.1344 95.3008 70.6549 100.952 70.6549 100.952L78.7223 117.906L78.7223 135.991Z" fill="#2F2E41"/>
<path d="M39.6864 73.543L31.3588 70.4347C31.3588 70.4347 23.5516 64.2182 25.3733 70.4347C27.195 76.6512 35.5226 90.2146 37.8648 88.8017C40.2069 87.3889 43.0237 83.8819 42.396 83.3748C41.7683 82.8678 37.6045 79.1944 39.6864 73.543Z" fill="#2F2E41"/>
<path d="M40.693 126.411L33.9705 129.975C33.9705 129.975 25.8411 131.333 30.3748 133.88C34.9086 136.426 47.4155 139.142 48.0408 136.765C48.6662 134.389 48.4181 130.445 47.7604 130.55C47.1028 130.654 42.5691 131.164 40.693 126.411Z" fill="#2F2E41"/>
<path d="M75.3391 117.341C75.3391 117.341 71.956 133.165 77.6813 136.556C83.4065 139.947 123.483 140.512 126.606 134.295C129.729 128.079 128.168 128.079 128.168 128.079L119.84 117.906L126.606 117.341C126.606 117.341 126.606 115.081 124.264 114.798C121.922 114.516 114.635 111.69 108.389 113.668C102.144 115.646 98.5004 109.712 98.5004 109.712L75.3391 117.341Z" fill="#575A89"/>
<path d="M70.9151 67.8915L66.491 94.1706L96.9391 90.2146L102.404 66.4787L70.9151 67.8915Z" fill="#3F3D56"/>
<path d="M71.826 68.8806L68.1827 92.3338L95.898 88.8018L101.233 67.4678L71.826 68.8806Z" fill="white"/>
<path d="M67.532 94.4531L66.491 94.1706L65.9706 95.3007L74.2983 120.449L75.0814 120.124L75.3391 118.472L67.532 94.4531Z" fill="#B3B3B3"/>
<path d="M66.491 93.8879L74.8187 120.167L106.308 115.081L96.9391 90.2146L66.491 93.8879Z" fill="#D0CDE1"/>
<path d="M70.6549 93.0403V94.4531L93.8161 91.6275L93.5559 90.2146L70.6549 93.0403Z" fill="#3F3D56"/>
<path d="M71.1753 95.866L74.8187 106.886L98.5004 103.778L94.3367 93.3228L71.1753 95.866Z" fill="#3F3D56"/>
<path d="M100.843 111.407L100.062 109.147C100.062 109.147 94.0763 97.8439 90.9535 100.104C87.8306 102.365 97.4595 113.385 97.4595 113.385H100.582L100.843 111.407Z" fill="#FFB8B8"/>
<path d="M81.0644 113.103L80.2837 109.712C80.2837 109.712 78.2018 99.2568 81.8451 99.8219C85.4885 100.387 86.5294 110.277 86.5294 110.277L86.2692 112.538L81.0644 113.103Z" fill="#FFB8B8"/>
<path d="M87.3101 111.69C87.3101 111.69 80.5439 110.56 80.2837 112.255C80.0235 113.95 78.7223 139.382 85.2282 140.229C91.7342 141.077 124.004 144.75 120.621 135.991C117.238 127.231 112.033 128.361 112.033 128.361L89.9125 130.905L87.3101 111.69Z" fill="#575A89"/>
<path d="M107.739 114.939L100.843 109.712L96.2884 113.527L102.014 120.308L107.739 114.939Z" fill="#575A89"/>
<path opacity="0.2" d="M89.2621 120.026L90.3028 130.763L108.259 129.633L92.645 129.351L89.2621 120.026Z" fill="black"/>
<path d="M142.671 132.496C149.858 132.496 155.683 126.17 155.683 118.367C155.683 110.564 149.858 104.239 142.671 104.239C135.485 104.239 129.659 110.564 129.659 118.367C129.659 126.17 135.485 132.496 142.671 132.496Z" fill="#2F2E41"/>
<path d="M75.7296 77.0751L91.8644 76.4652L93.4258 70.0109L76.7706 70.5567L75.7296 77.0751Z" fill="#2BBBAD"/>
<path d="M71.5658 80.7486L96.0281 79.9008L96.2883 78.7704L71.826 79.7057L71.5658 80.7486Z" fill="#E6E6E6"/>
<path d="M71.0452 83.5742L95.5078 82.7264L95.768 81.5961L71.3054 82.5313L71.0452 83.5742Z" fill="#E6E6E6"/>
<path d="M70.785 85.8346L95.2474 84.9871L95.5078 83.8568L71.0452 84.7917L70.785 85.8346Z" fill="#E6E6E6"/>
</g>
<defs>
<clipPath id="clip0">
<rect width="185" height="148" fill="white"/>
</clipPath>
</defs>
</svg>
