<svg width="20" height="20" viewBox="0 0 20 20" fill="none" xmlns="http://www.w3.org/2000/svg">
<path d="M15.7143 6.25V5C15.7143 2.24297 13.1508 0 10 0C6.84911 0 4.28571 2.24297 4.28571 5V6.25H0V16.875C0 18.6009 1.59897 20 3.57143 20H16.4286C18.401 20 20 18.6009 20 16.875V6.25H15.7143ZM7.14286 5C7.14286 3.62148 8.42455 2.5 10 2.5C11.5754 2.5 12.8571 3.62148 12.8571 5V6.25H7.14286V5ZM14.2857 9.6875C13.694 9.6875 13.2143 9.26777 13.2143 8.75C13.2143 8.23223 13.694 7.8125 14.2857 7.8125C14.8775 7.8125 15.3571 8.23223 15.3571 8.75C15.3571 9.26777 14.8775 9.6875 14.2857 9.6875ZM5.71429 9.6875C5.12254 9.6875 4.64286 9.26777 4.64286 8.75C4.64286 8.23223 5.12254 7.8125 5.71429 7.8125C6.30603 7.8125 6.78571 8.23223 6.78571 8.75C6.78571 9.26777 6.30603 9.6875 5.71429 9.6875Z" fill="#2BBBAD"/>
</svg>
